[{

	"id":12,
	"name":"Aile de raie",
	"category":0,
	"price":10.0,
	"unit":"kg",
	"availability":true,
	"sale":false,
	"discount":0.0,
	"comments":"Pêche à la corde",
	"owner":"tig"},

{
	"id":9,
	"name":"Araignées",
	"category":2,
	"price":7.0,
	"unit":"kg",
	"availability":false,
	"sale":false,
	"discount":0.0,
	"comments":"Hors saison, pêche aux casiers",
	"owner":"tig"},

{
	"id":3,
	"name":"Bar de ligne",
	"category":0,
	"price":30.0,
	"unit":"kg",
	"availability":true,
	"sale":false,
	"discount":0.0,
	"comments":"Plus de 1.5kg le poisson",
	"owner":"tig"},

{
	"id":2,
	"name":"Bar de ligne portion",
	"category":0,
	"price":10.0,
	"unit":"pièce",
	"availability":true,
	"sale":false,
	"discount":0.0,
	"comments":"Environ 550-700g la pièce",
	"owner":"tig"},

{
	"id":10,
	"name":"Bouquets cuits",
	"category":1,
	"price":8.0,
	"unit":"100g",
	"availability":false,
	"sale":false,
	"discount":0.0,
	"comments":"Hors saison, pêche à l'épuisette",
	"owner":"tig"},

{
	"id":1,
	"name":"Filet Bar de ligne",
	"category":0,
	"price":7.0,
	"unit":"2 filets",
	"availability":true,
	"sale":false,
	"discount":0.0,
	"comments":"environ 300g",
	"owner":"tig"},

{
	"id":5,
	"name":"Filet Julienne",
	"category":0,
	"price":19.0,
	"unit":"kg",
	"availability":false,
	"sale":false,
	"discount":0.0,
	"comments":"Pêche à la corde",
	"owner":"tig"},

{
	"id":7,
	"name":"Huitres N°2 St Vaast",
	"category":1,
	"price":9.5,
	"unit":"Dz",
	"availability":true,
	"sale":false,
	"discount":0.0,
	"comments":"",
	"owner":"tig"},

{
	"id":8,
	"name":"Huitres N°2 St Vaast",
	"category":1,
	"price":38.0,
	"unit":"4 Dz",
	"availability":true,
	"sale":false,
	"discount":0.0,
	"comments":"",
	"owner":"tig"},

{
	"id":13,
	"name":"Huîtres N°2 OR St Vaast",
	"category":1,
	"price":12.0,
	"unit":"Dz",
	"availability":true,
	"sale":false,
	"discount":0.0,
	"comments":"Médaille d'or Salon Agriculture",
	"owner":"tig"},

{
	"id":14,
	"name":"Huîtres N°2 OR St Vaast",
	"category":1,
	"price":24.0,
	"unit":"2 Dz",
	"availability":true,
	"sale":false,
	"discount":0.0,
	"comments":"Médaille d'or salon agriculture",
	"owner":"tig"},

{
	"id":15,
	"name":"Huîtres N°2 OR St Vaast",
	"category":1,
	"price":48.0,
	"unit":"4 Dz",
	"availability":true,
	"sale":false,
	"discount":0.0,
	"comments":"Médaille d'or salon agriculture",
	"owner":"tig"},

{
	"id":16,
	"name":"Huîtres N°2 St Vaast",
	"category":1,
	"price":19.0,
	"unit":"2 Dz",
	"availability":true,
	"sale":false,
	"discount":0.0,
	"comments":"",
	"owner":"tig"},

{
	"id":4,
	"name":"Lieu jaune de ligne",
	"category":0,
	"price":12.0,
	"unit":"kg",
	"availability":true,
	"sale":false,
	"discount":0.0,
	"comments":"Environ 550-700g la portion",
	"owner":"tig"},

{
	"id":6,
	"name":"Moules de pêche",
	"category":1,
	"price":7.0,
	"unit":"kg",
	"availability":true,
	"sale":true,
	"discount":5.0,
	"comments":"",
	"owner":"tig"},

{
	"id":17,
	"name":"Article 17",
	"category":0,
	"price":7.0,
	"unit":"kg",
	"availability":true,
	"sale":true,
	"discount":5.0,
	"comments":"",
	"owner":"tig"},

{
	"id":18,
	"name":"Article 18",
	"category":0,
	"price":7.0,
	"unit":"kg",
	"availability":true,
	"sale":true,
	"discount":5.0,
	"comments":"",
	"owner":"tig"},

{
	"id":19,
	"name":"Article 19",
	"category":0,
	"price":7.0,
	"unit":"kg",
	"availability":true,
	"sale":true,
	"discount":5.0,
	"comments":"",
	"owner":"tig"},

{
	"id":20,
	"name":"Article 20",
	"category":0,
	"price":7.0,
	"unit":"kg",
	"availability":true,
	"sale":true,
	"discount":5.0,
	"comments":"",
	"owner":"tig"},

{
	"id":21,
	"name":"Article 21",
	"category":0,
	"price":7.0,
	"unit":"kg",
	"availability":true,
	"sale":true,
	"discount":5.0,
	"comments":"",
	"owner":"tig"},

{
	"id":22,
	"name":"Article 22",
	"category":0,
	"price":7.0,
	"unit":"kg",
	"availability":true,
	"sale":true,
	"discount":5.0,
	"comments":"",
	"owner":"tig"},

{
	"id":23,
	"name":"Article 23",
	"category":0,
	"price":7.0,
	"unit":"kg",
	"availability":true,
	"sale":true,
	"discount":5.0,
	"comments":"",
	"owner":"tig"},

{
	"id":24,
	"name":"Article 24",
	"category":0,
	"price":7.0,
	"unit":"kg",
	"availability":true,
	"sale":true,
	"discount":5.0,
	"comments":"",
	"owner":"tig"},

{
	"id":25,
	"name":"Article 25",
	"category":0,
	"price":7.0,
	"unit":"kg",
	"availability":true,
	"sale":true,
	"discount":5.0,
	"comments":"",
	"owner":"tig"},

{
	"id":26,
	"name":"Article 26",
	"category":0,
	"price":7.0,
	"unit":"kg",
	"availability":true,
	"sale":true,
	"discount":5.0,
	"comments":"",
	"owner":"tig"},

{
	"id":27,
	"name":"Article 27",
	"category":0,
	"price":7.0,
	"unit":"kg",
	"availability":true,
	"sale":true,
	"discount":5.0,
	"comments":"",
	"owner":"tig"},

{
	"id":28,
	"name":"Article 28",
	"category":0,
	"price":7.0,
	"unit":"kg",
	"availability":true,
	"sale":true,
	"discount":5.0,
	"comments":"",
	"owner":"tig"},

{
	"id":29,
	"name":"Article 29",
	"category":0,
	"price":7.0,
	"unit":"kg",
	"availability":true,
	"sale":true,
	"discount":5.0,
	"comments":"",
	"owner":"tig"},

{
	"id":30,
	"name":"Article 30",
	"category":0,
	"price":7.0,
	"unit":"kg",
	"availability":true,
	"sale":true,
	"discount":5.0,
	"comments":"",
	"owner":"tig"},

{
	"id":31,
	"name":"Article 31",
	"category":0,
	"price":7.0,
	"unit":"kg",
	"availability":true,
	"sale":true,
	"discount":5.0,
	"comments":"",
	"owner":"tig"},

{
	"id":32,
	"name":"Article 32",
	"category":0,
	"price":7.0,
	"unit":"kg",
	"availability":true,
	"sale":true,
	"discount":5.0,
	"comments":"",
	"owner":"tig"},

{
	"id":33,
	"name":"Article 33",
	"category":0,
	"price":7.0,
	"unit":"kg",
	"availability":true,
	"sale":true,
	"discount":5.0,
	"comments":"",
	"owner":"tig"},

{
	"id":34,
	"name":"Article 34",
	"category":0,
	"price":7.0,
	"unit":"kg",
	"availability":true,
	"sale":true,
	"discount":5.0,
	"comments":"",
	"owner":"tig"},

{
	"id":35,
	"name":"Article 35",
	"category":0,
	"price":7.0,
	"unit":"kg",
	"availability":true,
	"sale":true,
	"discount":5.0,
	"comments":"",
	"owner":"tig"},

{
	"id":36,
	"name":"Article 36",
	"category":0,
	"price":7.0,
	"unit":"kg",
	"availability":true,
	"sale":true,
	"discount":5.0,
	"comments":"",
	"owner":"tig"},

{
	"id":37,
	"name":"Article 37",
	"category":0,
	"price":7.0,
	"unit":"kg",
	"availability":true,
	"sale":true,
	"discount":5.0,
	"comments":"",
	"owner":"tig"},

{
	"id":38,
	"name":"Article 38",
	"category":0,
	"price":7.0,
	"unit":"kg",
	"availability":true,
	"sale":true,
	"discount":5.0,
	"comments":"",
	"owner":"tig"},

{
	"id":39,
	"name":"Article 39",
	"category":0,
	"price":7.0,
	"unit":"kg",
	"availability":true,
	"sale":true,
	"discount":5.0,
	"comments":"",
	"owner":"tig"},

{
	"id":40,
	"name":"Article 40",
	"category":0,
	"price":7.0,
	"unit":"kg",
	"availability":true,
	"sale":true,
	"discount":5.0,
	"comments":"",
	"owner":"tig"}

]